cronoscanr
…
  if (!internal) {
    output <- dplyr::mutate(output, 
                            txs_fee = as.numeric(gasPrice)*as.numeric(gasUsed),
                            txs_fee = rescale_decimals(txs_fee, 18))
  }
  return(output)
}

Get a list of Normal Transactions By Address

cro_account_tx(account = sample_account, internal = FALSE, start_block = 1, end_block = 99999999)

# A tibble: 968 × 21
   blockNumber timeStamp  hash      nonce blockHash transactionIndex from  to   
   <chr>       <chr>      <chr>     <chr> <chr>     <chr>            <chr> <chr>
 1 10687093    1697413836 0xde2ae9… 959   0xe899f0… 0                0xd1… 0x47…
 2 10687089    1697413814 0x4566e5… 958   0x409ad0… 0                0xd1… 0xeb…
 3 10656676    1697242336 0xfc183e… 957   0xecfd00… 0                0xd1… 0xd1…
 4 10472900    1696204602 0x769638… 956   0xbdbd5e… 0                0xd1… 0x13…
 5 10106145    1694137696 0x80a507… 955   0x0bb73a… 3                0xd1… 0x6b…
 6 10105950    1694136600 0xd4de2a… 3190… 0xf4d657… 1                0xc9… 0xd1…
 7 9661442     1691631199 0x007fce… 954   0x79763f… 0                0xd1… 0x13…
 8 9154680     1688775992 0xc0394a… 953   0xb71975… 3                0xd1… 0xc2…
 9 9154678     1688775980 0xc35e89… 952   0xb0c953… 1                0xd1… 0xc2…
10 9154673     1688775952 0x2bee92… 951   0x407488… 3                0xd1… 0x66…
# ℹ 958 more rows
# ℹ 13 more variables: value <dbl>, gas <chr>, gasPrice <chr>, isError <chr>,
#   txreceipt_status <chr>, input <chr>, contractAddress <chr>,
#   cumulativeGasUsed <chr>, gasUsed <chr>, confirmations <chr>,
#   methodId <chr>, functionName <chr>, txs_fee <dbl>

Get a list of Internal Transactions By Address

cro_account_tx(account = sample_account, internal = TRUE, start_block = 1, end_block = 99999999)

# A tibble: 103 × 14
   blockNumber timeStamp  hash   from  to      value contractAddress input type 
   <chr>       <chr>      <chr>  <chr> <chr>   <dbl> <chr>           <chr> <chr>
 1 10472900    1696204602 0x769… 0x13… 0xd1… 7.41e+0 ""              ""    call 
 2 9661442     1691631199 0x007… 0x13… 0xd1… 7.06e+0 ""              ""    call 
 3 8940811     1687573518 0x7c8… 0x13… 0xd1… 4.83e+0 ""              ""    call 
 4 8450282     1684798070 0x590… 0x13… 0xd1… 2.65e+0 ""              ""    call 
 5 8191335     1683331834 0x895… 0x14… 0xd1… 1.09e-1 ""              ""    call 
 6 8024180     1682386624 0x3fa… 0x77… 0xd1… 8.96e-2 ""              ""    call 
 7 8008086     1682295659 0x436… 0x14… 0xd1… 6.79e-1 ""              ""    call 
 8 8008040     1682295399 0x92f… 0x14… 0xd1… 7.99e-1 ""              ""    call 
 9 7489105     1679363726 0xbc4… 0x14… 0xd1… 6.12e+2 ""              ""    call 
10 6030774     1671117355 0x1b4… 0x89… 0xd1… 7.52e-3 ""              ""    call 
# ℹ 93 more rows
# ℹ 5 more variables: gas <chr>, gasUsed <chr>, traceId <chr>, isError <chr>,
#   errCode <chr>
…
cro_account_tx(account = NULL, internal = TRUE, txhash = "0x76963821ab8f310a1ba42e6c1ebb36fb9a8442f87a8c298e81136a15355c2ac6", start_block = 100000, end_block = 100010)

# A tibble: 2 × 12
  blockNumber timeStamp  from      to    value contractAddress input type  gas  
  <chr>       <chr>      <chr>     <chr> <dbl> <chr>           <chr> <chr> <chr>
1 10472900    1696204602 0x5c7f8a… 0x13…  7.41 ""              ""    call  2300 
2 10472900    1696204602 0x133b7f… 0xd1…  7.41 ""              ""    call  1899…
# ℹ 3 more variables: gasUsed <chr>, isError <chr>, errCode <chr>

Get a list of Internal Transactions by Block Range

cro_account_tx(account = NULL, internal = TRUE, start_block = 100000, end_block = 100010)

# A tibble: 76 × 14
   blockNumber timeStamp  hash   from  to      value contractAddress input type 
   <chr>       <chr>      <chr>  <chr> <chr>   <dbl> <chr>           <chr> <chr>
 1 100010      1636891539 0x894… 0xcd… 0x5c… 1.11e+2 ""              ""    call 
 2 100010      1636891539 0x5a8… 0xcd… 0x87… 1.06e-2 ""              ""    call 
 3 100010      1636891539 0x5a8… 0xcd… 0x5c… 2.20e+1 ""              ""    call 
 4 100010      1636891539 0xfc1… 0x14… 0x5c… 2.5 e+1 ""              ""    call 
 5 100010      1636891539 0x904… 0xcd… 0x5c… 1   e+0 ""              ""    call 
 6 100010      1636891539 0x375… 0x14… 0x34… 1.94e-2 ""              ""    call 
 7 100010      1636891539 0x375… 0x14… 0x5c… 2.21e+3 ""              ""    call 
 8 100010      1636891539 0xa5c… 0x14… 0x5c… 4.09e+3 ""              ""    call 
 9 100009      1636891534 0xd17… 0x14… 0x91… 5.44e-1 ""              ""    call 
10 100009      1636891534 0x266… 0x5c… 0xcd… 1.08e+1 ""              ""    call 
# ℹ 66 more rows
# ℹ 5 more variables: gas <chr>, gasUsed <chr>, traceId <chr>, isError <chr>,
#   errCode <chr>
…
  output <- dplyr::mutate(output, 
                          txs_fee = as.numeric(gasPrice)*as.numeric(gasUsed),
                          txs_fee = rescale_decimals(txs_fee, 18))
  return(output)
}

Example

cro_account_crc_tx(sample_account, contract = wcro, nft = FALSE)

# A tibble: 30 × 19
   blockNumber timeStamp hash  nonce blockHash from  contractAddress to    value
   <chr>       <chr>     <chr> <chr> <chr>     <chr> <chr>           <chr> <chr>
 1 4241568     16609628… 0xf0… 893   0x7b45d8… 0xa9… 0x5c7f8a570d57… 0xd1… 2940…
 2 4065391     16599637… 0x96… 876   0x032a5b… 0x69… 0x5c7f8a570d57… 0xd1… 5566…
 3 3647052     16575842… 0x0b… 831   0x8b6657… 0x30… 0x5c7f8a570d57… 0xd1… 2532…
 4 3634059     16575102… 0x2e… 823   0x40c12a… 0xd1… 0x5c7f8a570d57… 0xd0… 1138…
 5 3634007     16575099… 0x61… 820   0x7c4cdb… 0x69… 0x5c7f8a570d57… 0xd1… 1132…
 6 3486582     16566702… 0x9c… 816   0x8a9619… 0xc7… 0x5c7f8a570d57… 0xd1… 5867…
 7 3091578     16544215… 0x39… 805   0x607425… 0xc7… 0x5c7f8a570d57… 0xd1… 2647…
 8 3018569     16540059… 0xbc… 784   0x5c0adf… 0xc7… 0x5c7f8a570d57… 0xd1… 2489…
 9 2903634     16533449… 0x79… 747   0x02dcb3… 0x69… 0x5c7f8a570d57… 0xd1… 1049…
10 2895977     16533008… 0xab… 746   0x0408d2… 0x40… 0x5c7f8a570d57… 0xd1… 1581…
# ℹ 20 more rows
# ℹ 10 more variables: tokenName <chr>, tokenSymbol <chr>, tokenDecimal <chr>,
#   transactionIndex <chr>, gas <chr>, gasPrice <chr>, gasUsed <chr>,
#   cumulativeGasUsed <chr>, input <chr>, confirmations <chr>
…
Example

cro_address_validated_blocks(address = "0xca5cf03d081197be24ef707081fbd7f3f11eb02d")

# A tibble: 10,000 × 3
   blockNumber timeStamp             blockReward
   <chr>       <dttm>                      <dbl>
 1 10773792    2023-10-21 17:30:24  0.220       
 2 10773786    2023-10-21 17:29:49  0.0425      
 3 10773781    2023-10-21 17:29:21  0.000139    
 4 10773776    2023-10-21 17:28:53  0.0136      
 5 10773771    2023-10-21 17:28:24  0.000000134 
 6 10773765    2023-10-21 17:27:50  0.0000000593
 7 10773761    2023-10-21 17:27:28  0.00338     
 8 10773755    2023-10-21 17:26:54  0.0891      
 9 10773750    2023-10-21 17:26:25 24.9         
10 10773745    2023-10-21 17:25:56  0.000000112 
# ℹ 9,990 more rows
…
